-3.0 0.5 0.5
 0.0 8.5 0.05
 0.00181
 9 171
 -40.000
 -40.000
 -40.000
 -40.000
 -40.000
 -40.000
 -40.000
 -40.000
 -40.000
 -40.000
 -40.000
 -40.000
 -40.000
 -40.000
 -40.000
 -40.000
 -40.000
 -39.999
 -39.996
 -39.987
 -39.963
 -39.906
 -39.799
 -39.640
 -39.442
 -39.229
 -39.016
 -38.804
 -38.565
 -38.223
 -37.723
 -37.131
 -36.533
 -35.968
 -35.443
 -34.960
 -34.516
 -34.108
 -33.733
 -33.388
 -33.071
 -32.779
 -32.508
 -32.257
 -32.024
 -31.805
 -31.599
 -31.404
 -31.219
 -31.041
 -30.869
 -30.701
 -30.537
 -30.375
 -30.215
 -30.055
 -29.894
 -29.733
 -29.570
 -29.405
 -29.239
 -29.071
 -28.901
 -28.730
 -28.557
 -28.384
 -28.210
 -28.038
 -27.867
 -27.698
 -27.534
 -27.375
 -27.222
 -27.078
 -26.943
 -26.821
 -26.712
 -26.619
 -26.544
 -26.490
 -25.900
 -24.683
 -23.530
 -22.630
 -22.120
 -21.980
 -22.030
 -22.130
 -22.240
 -22.330
 -22.400
 -22.490
 -22.570
 -22.630
 -22.630
 -22.550
 -22.390
 -22.230
 -22.150
 -22.160
 -22.240
 -22.330
 -22.430
 -22.520
 -22.600
 -22.660
 -22.720
 -22.770
 -22.820
 -22.900
 -22.980
 -23.040
 -23.080
 -23.120
 -23.140
 -23.160
 -23.180
 -23.200
 -23.220
 -23.230
 -23.230
 -23.240
 -23.240
 -23.230
 -23.230
 -23.230
 -23.220
 -23.230
 -23.220
 -23.210
 -23.200
 -23.190
 -23.170
 -23.160
 -23.140
 -23.130
 -23.110
 -23.090
 -23.080
 -23.060
 -23.040
 -23.030
 -23.010
 -22.990
 -22.970
 -22.950
 -22.930
 -22.910
 -22.890
 -22.860
 -22.840
 -22.820
 -22.800
 -22.780
 -22.760
 -22.730
 -22.710
 -22.690
 -22.670
 -22.650
 -22.620
 -22.600
 -22.580
 -22.560
 -22.530
 -22.510
 -22.490
 -22.460
 -22.440
 -22.420
 -22.390
 -40.000
 -40.000
 -40.000
 -40.000
 -40.000
 -40.000
 -40.000
 -40.000
 -40.000
 -40.000
 -39.999
 -39.976
 -39.713
 -38.912
 -37.981
 -37.127
 -36.362
 -35.680
 -35.072
 -34.530
 -34.046
 -33.615
 -33.231
 -32.888
 -32.583
 -32.310
 -32.066
 -31.849
 -31.655
 -31.482
 -31.327
 -31.187
 -31.061
 -30.945
 -30.838
 -30.735
 -30.636
 -30.538
 -30.440
 -30.341
 -30.242
 -30.144
 -30.048
 -29.956
 -29.867
 -29.782
 -29.703
 -29.629
 -29.559
 -29.494
 -29.434
 -29.377
 -29.323
 -29.271
 -29.220
 -29.170
 -29.118
 -29.063
 -29.003
 -28.936
 -28.860
 -28.772
 -28.671
 -28.556
 -28.430
 -28.292
 -28.145
 -27.991
 -27.834
 -27.676
 -27.518
 -27.363
 -27.214
 -27.072
 -26.939
 -26.817
 -26.709
 -26.617
 -26.542
 -26.488
 -25.899
 -24.683
 -23.530
 -22.630
 -22.120
 -21.980
 -22.030
 -22.130
 -22.240
 -22.330
 -22.400
 -22.490
 -22.570
 -22.630
 -22.630
 -22.550
 -22.390
 -22.230
 -22.150
 -22.160
 -22.240
 -22.330
 -22.430
 -22.520
 -22.600
 -22.660
 -22.720
 -22.770
 -22.820
 -22.900
 -22.980
 -23.040
 -23.080
 -23.120
 -23.140
 -23.160
 -23.180
 -23.200
 -23.220
 -23.230
 -23.230
 -23.240
 -23.240
 -23.230
 -23.230
 -23.230
 -23.220
 -23.230
 -23.220
 -23.210
 -23.200
 -23.190
 -23.170
 -23.160
 -23.140
 -23.130
 -23.110
 -23.090
 -23.080
 -23.060
 -23.040
 -23.030
 -23.010
 -22.990
 -22.970
 -22.950
 -22.930
 -22.910
 -22.890
 -22.860
 -22.840
 -22.820
 -22.800
 -22.780
 -22.760
 -22.730
 -22.710
 -22.690
 -22.670
 -22.650
 -22.620
 -22.600
 -22.580
 -22.560
 -22.530
 -22.510
 -22.490
 -22.460
 -22.440
 -22.420
 -22.390
 -40.000
 -40.000
 -40.000
 -40.000
 -40.000
 -40.000
 -40.000
 -40.000
 -40.000
 -40.000
 -39.997
 -39.928
 -39.402
 -38.437
 -37.484
 -36.627
 -35.862
 -35.180
 -34.572
 -34.030
 -33.546
 -33.115
 -32.731
 -32.388
 -32.083
 -31.810
 -31.566
 -31.349
 -31.155
 -30.982
 -30.827
 -30.687
 -30.561
 -30.445
 -30.338
 -30.235
 -30.136
 -30.038
 -29.940
 -29.841
 -29.743
 -29.645
 -29.549
 -29.457
 -29.369
 -29.285
 -29.207
 -29.134
 -29.066
 -29.003
 -28.945
 -28.891
 -28.841
 -28.795
 -28.752
 -28.711
 -28.671
 -28.632
 -28.593
 -28.551
 -28.506
 -28.454
 -28.394
 -28.323
 -28.239
 -28.142
 -28.030
 -27.906
 -27.771
 -27.630
 -27.485
 -27.340
 -27.197
 -27.059
 -26.929
 -26.810
 -26.703
 -26.612
 -26.538
 -26.485
 -25.895
 -24.678
 -23.530
 -22.630
 -22.120
 -21.980
 -22.025
 -22.125
 -22.235
 -22.320
 -22.385
 -22.465
 -22.530
 -22.570
 -22.560
 -22.475
 -22.330
 -22.180
 -22.100
 -22.105
 -22.170
 -22.245
 -22.320
 -22.375
 -22.425
 -22.460
 -22.490
 -22.515
 -22.560
 -22.660
 -22.785
 -22.890
 -22.950
 -22.990
 -23.005
 -23.025
 -23.055
 -23.100
 -23.140
 -23.160
 -23.165
 -23.180
 -23.180
 -23.175
 -23.175
 -23.175
 -23.175
 -23.190
 -23.190
 -23.185
 -23.180
 -23.170
 -23.155
 -23.145
 -23.130
 -23.120
 -23.100
 -23.085
 -23.070
 -23.055
 -23.035
 -23.020
 -23.005
 -22.985
 -22.965
 -22.945
 -22.925
 -22.905
 -22.885
 -22.860
 -22.840
 -22.820
 -22.800
 -22.780
 -22.755
 -22.730
 -22.710
 -22.690
 -22.670
 -22.645
 -22.620
 -22.600
 -22.580
 -22.555
 -22.530
 -22.510
 -22.490
 -22.460
 -22.440
 -22.420
 -22.390
 -40.000
 -40.000
 -40.000
 -40.000
 -40.000
 -40.000
 -40.000
 -40.000
 -40.000
 -40.000
 -39.989
 -39.803
 -38.985
 -37.945
 -36.985
 -36.127
 -35.362
 -34.680
 -34.072
 -33.530
 -33.046
 -32.615
 -32.231
 -31.888
 -31.583
 -31.310
 -31.066
 -30.849
 -30.655
 -30.482
 -30.327
 -30.187
 -30.061
 -29.945
 -29.838
 -29.735
 -29.636
 -29.538
 -29.440
 -29.341
 -29.243
 -29.145
 -29.050
 -28.957
 -28.869
 -28.786
 -28.708
 -28.635
 -28.568
 -28.506
 -28.448
 -28.396
 -28.347
 -28.303
 -28.262
 -28.224
 -28.189
 -28.156
 -28.125
 -28.095
 -28.064
 -28.032
 -27.998
 -27.959
 -27.913
 -27.857
 -27.791
 -27.711
 -27.617
 -27.511
 -27.395
 -27.272
 -27.146
 -27.021
 -26.900
 -26.787
 -26.685
 -26.597
 -26.525
 -26.473
 -25.888
 -24.672
 -23.529
 -22.630
 -22.120
 -21.980
 -22.020
 -22.120
 -22.230
 -22.310
 -22.370
 -22.440
 -22.490
 -22.510
 -22.490
 -22.400
 -22.270
 -22.130
 -22.050
 -22.050
 -22.100
 -22.160
 -22.210
 -22.230
 -22.250
 -22.260
 -22.260
 -22.260
 -22.300
 -22.420
 -22.590
 -22.740
 -22.820
 -22.860
 -22.870
 -22.890
 -22.930
 -23.000
 -23.060
 -23.090
 -23.100
 -23.120
 -23.120
 -23.120
 -23.120
 -23.120
 -23.130
 -23.150
 -23.160
 -23.160
 -23.160
 -23.150
 -23.140
 -23.130
 -23.120
 -23.110
 -23.090
 -23.080
 -23.060
 -23.050
 -23.030
 -23.010
 -23.000
 -22.980
 -22.960
 -22.940
 -22.920
 -22.900
 -22.880
 -22.860
 -22.840
 -22.820
 -22.800
 -22.780
 -22.750
 -22.730
 -22.710
 -22.690
 -22.669
 -22.639
 -22.619
 -22.599
 -22.579
 -22.549
 -22.529
 -22.509
 -22.489
 -22.459
 -22.439
 -22.419
 -22.389
 -40.000
 -40.000
 -40.000
 -40.000
 -40.000
 -40.000
 -40.000
 -40.000
 -40.000
 -39.999
 -39.967
 -39.550
 -38.515
 -37.447
 -36.485
 -35.627
 -34.862
 -34.180
 -33.572
 -33.030
 -32.546
 -32.115
 -31.731
 -31.388
 -31.083
 -30.810
 -30.566
 -30.349
 -30.155
 -29.982
 -29.827
 -29.687
 -29.561
 -29.445
 -29.338
 -29.235
 -29.136
 -29.038
 -28.940
 -28.841
 -28.743
 -28.645
 -28.550
 -28.458
 -28.370
 -28.286
 -28.208
 -28.136
 -28.068
 -28.006
 -27.949
 -27.897
 -27.849
 -27.805
 -27.765
 -27.729
 -27.695
 -27.664
 -27.636
 -27.609
 -27.585
 -27.561
 -27.537
 -27.512
 -27.486
 -27.456
 -27.421
 -27.379
 -27.328
 -27.267
 -27.193
 -27.110
 -27.017
 -26.919
 -26.820
 -26.723
 -26.633
 -26.553
 -26.487
 -26.438
 -25.846
 -24.637
 -23.509
 -22.615
 -22.110
 -21.965
 -22.005
 -22.095
 -22.180
 -22.230
 -22.260
 -22.275
 -22.275
 -22.245
 -22.195
 -22.105
 -21.995
 -21.880
 -21.810
 -21.795
 -21.815
 -21.840
 -21.855
 -21.850
 -21.845
 -21.835
 -21.820
 -21.810
 -21.850
 -21.975
 -22.170
 -22.345
 -22.445
 -22.485
 -22.495
 -22.515
 -22.565
 -22.665
 -22.755
 -22.800
 -22.825
 -22.850
 -22.860
 -22.855
 -22.855
 -22.865
 -22.900
 -22.945
 -22.980
 -23.000
 -23.015
 -23.020
 -23.024
 -23.024
 -23.024
 -23.024
 -23.014
 -23.009
 -22.994
 -22.984
 -22.969
 -22.954
 -22.949
 -22.939
 -22.924
 -22.909
 -22.894
 -22.874
 -22.859
 -22.839
 -22.824
 -22.804
 -22.784
 -22.764
 -22.739
 -22.719
 -22.699
 -22.678
 -22.658
 -22.628
 -22.608
 -22.588
 -22.568
 -22.543
 -22.518
 -22.498
 -22.478
 -22.453
 -22.428
 -22.408
 -22.383
 -40.000
 -40.000
 -40.000
 -40.000
 -40.000
 -40.000
 -40.000
 -40.000
 -40.000
 -39.997
 -39.903
 -39.171
 -38.024
 -36.948
 -35.986
 -35.127
 -34.362
 -33.680
 -33.072
 -32.530
 -32.046
 -31.615
 -31.231
 -30.888
 -30.583
 -30.310
 -30.066
 -29.849
 -29.655
 -29.482
 -29.327
 -29.187
 -29.061
 -28.945
 -28.838
 -28.735
 -28.636
 -28.538
 -28.440
 -28.341
 -28.243
 -28.145
 -28.050
 -27.958
 -27.870
 -27.786
 -27.708
 -27.636
 -27.569
 -27.507
 -27.450
 -27.398
 -27.350
 -27.306
 -27.266
 -27.230
 -27.197
 -27.167
 -27.139
 -27.114
 -27.091
 -27.070
 -27.050
 -27.031
 -27.012
 -26.993
 -26.973
 -26.950
 -26.924
 -26.893
 -26.856
 -26.811
 -26.759
 -26.699
 -26.634
 -26.566
 -26.499
 -26.436
 -26.383
 -26.342
 -25.788
 -24.601
 -23.489
 -22.600
 -22.100
 -21.950
 -21.990
 -22.070
 -22.130
 -22.150
 -22.150
 -22.110
 -22.060
 -21.980
 -21.900
 -21.810
 -21.720
 -21.630
 -21.570
 -21.540
 -21.530
 -21.520
 -21.500
 -21.470
 -21.440
 -21.410
 -21.380
 -21.360
 -21.400
 -21.530
 -21.750
 -21.950
 -22.070
 -22.110
 -22.120
 -22.140
 -22.200
 -22.330
 -22.450
 -22.510
 -22.550
 -22.580
 -22.600
 -22.590
 -22.590
 -22.610
 -22.670
 -22.739
 -22.799
 -22.839
 -22.869
 -22.889
 -22.909
 -22.919
 -22.928
 -22.938
 -22.938
 -22.938
 -22.928
 -22.918
 -22.908
 -22.898
 -22.897
 -22.897
 -22.887
 -22.877
 -22.867
 -22.847
 -22.836
 -22.816
 -22.806
 -22.786
 -22.766
 -22.746
 -22.726
 -22.706
 -22.685
 -22.665
 -22.645
 -22.615
 -22.595
 -22.575
 -22.555
 -22.535
 -22.505
 -22.485
 -22.464
 -22.444
 -22.414
 -22.394
 -22.374
 -40.000
 -40.000
 -40.000
 -40.000
 -40.000
 -40.000
 -40.000
 -40.000
 -40.000
 -39.990
 -39.747
 -38.718
 -37.527
 -36.448
 -35.486
 -34.627
 -33.862
 -33.180
 -32.572
 -32.030
 -31.546
 -31.115
 -30.731
 -30.388
 -30.083
 -29.810
 -29.566
 -29.349
 -29.155
 -28.982
 -28.827
 -28.687
 -28.561
 -28.445
 -28.338
 -28.235
 -28.136
 -28.038
 -27.940
 -27.841
 -27.743
 -27.645
 -27.550
 -27.458
 -27.370
 -27.286
 -27.208
 -27.136
 -27.069
 -27.007
 -26.950
 -26.898
 -26.850
 -26.806
 -26.767
 -26.731
 -26.698
 -26.668
 -26.640
 -26.616
 -26.593
 -26.573
 -26.554
 -26.537
 -26.520
 -26.505
 -26.490
 -26.475
 -26.459
 -26.442
 -26.423
 -26.401
 -26.375
 -26.345
 -26.311
 -26.274
 -26.234
 -26.195
 -26.160
 -26.132
 -25.648
 -24.480
 -23.419
 -22.560
 -22.070
 -21.920
 -21.940
 -22.000
 -22.020
 -22.000
 -21.940
 -21.870
 -21.780
 -21.690
 -21.590
 -21.500
 -21.410
 -21.330
 -21.270
 -21.230
 -21.220
 -21.230
 -21.220
 -21.190
 -21.160
 -21.140
 -21.120
 -21.100
 -21.140
 -21.270
 -21.500
 -21.700
 -21.810
 -21.850
 -21.860
 -21.870
 -21.930
 -22.050
 -22.150
 -22.190
 -22.220
 -22.240
 -22.240
 -22.240
 -22.230
 -22.259
 -22.339
 -22.439
 -22.529
 -22.588
 -22.638
 -22.658
 -22.688
 -22.707
 -22.727
 -22.747
 -22.756
 -22.746
 -22.736
 -22.735
 -22.725
 -22.725
 -22.744
 -22.754
 -22.763
 -22.762
 -22.762
 -22.751
 -22.741
 -22.730
 -22.720
 -22.709
 -22.689
 -22.669
 -22.648
 -22.638
 -22.618
 -22.597
 -22.577
 -22.556
 -22.536
 -22.516
 -22.486
 -22.465
 -22.445
 -22.425
 -22.404
 -22.384
 -22.364
 -22.334
 -22.313
 -40.000
 -40.000
 -40.000
 -40.000
 -40.000
 -40.000
 -40.000
 -40.000
 -39.999
 -39.969
 -39.455
 -38.234
 -37.028
 -35.949
 -34.986
 -34.127
 -33.362
 -32.680
 -32.072
 -31.530
 -31.046
 -30.615
 -30.231
 -29.888
 -29.583
 -29.310
 -29.066
 -28.849
 -28.655
 -28.482
 -28.327
 -28.187
 -28.061
 -27.945
 -27.838
 -27.735
 -27.636
 -27.538
 -27.440
 -27.341
 -27.243
 -27.145
 -27.050
 -26.958
 -26.870
 -26.786
 -26.708
 -26.636
 -26.569
 -26.507
 -26.450
 -26.398
 -26.350
 -26.307
 -26.267
 -26.231
 -26.198
 -26.168
 -26.141
 -26.116
 -26.094
 -26.074
 -26.055
 -26.039
 -26.023
 -26.009
 -25.996
 -25.983
 -25.971
 -25.959
 -25.947
 -25.934
 -25.919
 -25.904
 -25.886
 -25.867
 -25.846
 -25.825
 -25.805
 -25.787
 -25.406
 -24.256
 -23.279
 -22.470
 -21.990
 -21.840
 -21.850
 -21.870
 -21.840
 -21.770
 -21.660
 -21.560
 -21.450
 -21.340
 -21.240
 -21.140
 -21.050
 -20.970
 -20.910
 -20.870
 -20.870
 -20.900
 -20.910
 -20.890
 -20.860
 -20.850
 -20.840
 -20.840
 -20.870
 -21.010
 -21.230
 -21.430
 -21.540
 -21.580
 -21.590
 -21.590
 -21.640
 -21.740
 -21.810
 -21.830
 -21.840
 -21.840
 -21.830
 -21.819
 -21.819
 -21.849
 -21.949
 -22.079
 -22.188
 -22.268
 -22.317
 -22.347
 -22.376
 -22.406
 -22.435
 -22.454
 -22.474
 -22.473
 -22.453
 -22.443
 -22.442
 -22.451
 -22.480
 -22.518
 -22.546
 -22.565
 -22.583
 -22.591
 -22.589
 -22.588
 -22.577
 -22.575
 -22.564
 -22.543
 -22.532
 -22.511
 -22.499
 -22.478
 -22.458
 -22.446
 -22.425
 -22.404
 -22.383
 -22.363
 -22.342
 -22.321
 -22.300
 -22.279
 -22.258
 -22.237
 -22.216
 -40.000
 -40.000
 -40.000
 -40.000
 -40.000
 -40.000
 -40.000
 -40.000
 -39.998
 -39.908
 -39.049
 -37.739
 -36.529
 -35.449
 -34.486
 -33.627
 -32.862
 -32.180
 -31.572
 -31.030
 -30.546
 -30.115
 -29.731
 -29.388
 -29.083
 -28.810
 -28.566
 -28.349
 -28.155
 -27.982
 -27.827
 -27.687
 -27.561
 -27.445
 -27.338
 -27.235
 -27.136
 -27.038
 -26.940
 -26.841
 -26.743
 -26.645
 -26.550
 -26.458
 -26.370
 -26.286
 -26.208
 -26.136
 -26.069
 -26.007
 -25.950
 -25.898
 -25.850
 -25.807
 -25.767
 -25.731
 -25.698
 -25.668
 -25.641
 -25.616
 -25.594
 -25.574
 -25.556
 -25.539
 -25.524
 -25.510
 -25.498
 -25.486
 -25.475
 -25.465
 -25.455
 -25.445
 -25.434
 -25.424
 -25.413
 -25.402
 -25.389
 -25.375
 -25.362
 -25.350
 -25.166
 -24.234
 -22.978
 -22.260
 -21.800
 -21.640
 -21.610
 -21.570
 -21.480
 -21.360
 -21.220
 -21.090
 -20.970
 -20.860
 -20.750
 -20.650
 -20.570
 -20.500
 -20.430
 -20.390
 -20.390
 -20.420
 -20.420
 -20.400
 -20.370
 -20.350
 -20.340
 -20.340
 -20.370
 -20.510
 -20.730
 -20.930
 -21.050
 -21.090
 -21.090
 -21.090
 -21.140
 -21.240
 -21.320
 -21.340
 -21.350
 -21.350
 -21.339
 -21.329
 -21.319
 -21.349
 -21.459
 -21.589
 -21.708
 -21.798
 -21.857
 -21.896
 -21.926
 -21.955
 -21.994
 -22.033
 -22.052
 -22.052
 -22.041
 -22.031
 -22.030
 -22.049
 -22.097
 -22.144
 -22.191
 -22.237
 -22.273
 -22.289
 -22.315
 -22.321
 -22.327
 -22.324
 -22.321
 -22.317
 -22.314
 -22.301
 -22.288
 -22.275
 -22.262
 -22.240
 -22.227
 -22.214
 -22.192
 -22.179
 -22.165
 -22.143
 -22.121
 -22.108
 -22.086
 -22.064
 -22.042
